"Female_rank","Centrality","OSR","Female_age","Reproductive_Success","Coercion","Female"
0.283333333333333,0.0330568207508823,0.935846560846562,10.2450376454483,3,0,1
0.169811320754717,0.032707368599203,0.592063492063492,7.24709103353867,1,0,1
0.0851063829787234,0.13708060018371,0.668386243386243,14.2751540041068,2,0,2
0.0975609756097561,0.268327577754785,0.87962962962963,13.2758384668036,2,0.142186833499218,2
0.0566037735849057,0.566166067071302,0.592063492063492,14.2477754962355,3,0.174070463723715,3
0.219512195121951,0.883871142018154,0.87962962962963,12.2464065708419,2,0.149663257670242,3
0.0333333333333333,0.270051928232755,0.935846560846562,15.0362765229295,8,0.0732332478945441,4
0.0188679245283019,0.162607982613829,0.592063492063492,12.0383299110198,6,0.15938795027096,4
0.0277777777777778,0.302854345208093,1.16388888888889,9.03764544832307,4,0.163903718272923,4
0.0212765957446809,0.857326314994008,0.668386243386243,11.0362765229295,5,0.158508749682983,4
0.0344827586206897,1,0.888425925925926,14.0369609856263,7,1.4402304368699,4
NA,NA,1.0375,8.03832991101985,2,0,4
0.784810126582278,0.00916032147194113,NA,12.580424366872,6,0,5
0.7,0.187288769573193,0.935846560846562,10.5790554414784,6,0,5
0.51219512195122,0.277994978968393,0.87962962962963,5.57973990417522,2,0.542299349240781,5
0.483333333333333,0.356052290509448,0.935846560846562,16.829568788501,6,0,6
0.121951219512195,0.390750832769036,0.87962962962963,11.8302532511978,3,0.127490039840637,6
0.333333333333333,0.307194602258468,1.16388888888889,10.8309377138946,2,0,6
0.319148936170213,0.127917108670513,0.668386243386243,15.8904859685147,2,0,7
0.0689655172413793,0.0815860082110342,0.888425925925926,18.8911704312115,4,0.159515074174509,7
0.222222222222222,0.198404547661621,1.16388888888889,13.8918548939083,1,0,7
0.277777777777778,NA,1.16388888888889,5.24845995893224,0,0,8
0.340425531914894,0.150065292351607,0.668386243386243,12.1752224503765,1,0.0444622293361789,9
0.148936170212766,0.446280753817236,0.668386243386243,14.3791923340178,3,0,10
0.195121951219512,0.139085543133661,0.87962962962963,13.3798767967146,2,0.29167274318215,10
0.170212765957447,0.201050446479596,0.668386243386243,10.9869952087611,3,0.0822571358065312,11
0.0862068965517241,NA,0.888425925925926,13.9876796714579,5,1.02669404517454,11
0.111111111111111,0.232905751506791,1.16388888888889,8.98836413415469,2,0,11
0.0862068965517241,NA,0.888425925925926,13.9876796714579,5,0.128485159964024,11
0.0652173913043478,NA,0.805555555555555,18.1437371663244,9,2.56786500366838,12
0.25531914893617,0.86717290498734,0.668386243386243,16.1423682409309,8,0.0585126094673402,12
0.361111111111111,0.463588952727643,1.16388888888889,14.1437371663244,6,0.0908017797148824,12
0.414634146341463,1,0.87962962962963,15.1430527036277,7,0,12
0.5,NA,1.16388888888889,10.8309377138946,1,0.762776506483597,13
0.733333333333333,0.421809811847543,0.935846560846562,13.5797399041752,6,0.173310225303293,14
0.268292682926829,0.596444545043736,0.87962962962963,8.58042436687201,2,0.182999359502242,14
0.659574468085106,0.966654503497559,0.668386243386243,9.57973990417522,3,0.10961006220371,14
0.527777777777778,0.229910794525786,1.16388888888889,7.58110882956879,1,1.26342387871131,14
0.396551724137931,NA,0.888425925925926,8.99931553730322,3,1.01677681748856,15
0.85,0.143872774131886,0.935846560846562,17.1635865845311,10,0,16
0.75,0.562713051486179,1.16388888888889,11.1649555099247,5,0.0559879066121718,16
0.833333333333333,0.437840082625327,0.935846560846562,13.2457221081451,7,0,17
0.987341772151899,0.0167536516739676,NA,15.2470910335387,9,0.652315720808871,17
0.872340425531915,0.360176858149235,0.668386243386243,9.24572210814511,3,0.181444296600944,17
0.780487804878049,0.778971595905518,0.87962962962963,8.24640657084189,2,0.399440782903934,17
0.844827586206897,NA,0.888425925925926,12.2464065708419,6,0,17
0.566666666666667,0.162159964434853,0.935846560846562,13.5797399041752,8,0,18
0.74468085106383,0.818869991290095,0.668386243386243,9.57973990417522,5,0.204123290467442,18
0.811320754716981,0.394313554358305,0.592063492063492,10.5817932922656,6,0.0822706705059646,18
0.777777777777778,0.328882628950692,1.16388888888889,7.58110882956879,4,0.333333333333333,18
0.416666666666667,0.153544327610927,1.16388888888889,5.58247775496235,2,0,19
0.731707317073171,0.932952845605859,0.87962962962963,5.16084873374401,1,0.187265917602996,20
0.829787234042553,0.306783623688033,0.668386243386243,6.16016427104723,1,0.361827227498869,20
0.722222222222222,0.335569746022959,1.16388888888889,4.16153319644079,0,0.81358690125089,20
0.15,0.0545841691870672,0.935846560846562,11.2470910335387,4,0.132082948091401,21
0.787234042553192,0.941484446609746,0.668386243386243,7.24709103353867,1,0.441281923989189,21
0.741379310344828,NA,0.888425925925926,10.2477754962355,3,0,21
0.292682926829268,0.138120102705201,0.87962962962963,21.0814510609172,5,0.113700966458215,22
0.305555555555556,0.043395286339569,1.16388888888889,20.082135523614,4,0,22
0.0731707317073171,0.0984162951443886,0.87962962962963,13.4017796030116,1,0,23
0.75,0.269048381046634,0.935846560846562,15.2470910335387,7,0,24
0.765957446808511,0.154632979160584,0.668386243386243,11.2470910335387,5,0,24
0.754716981132076,0.125245420499125,0.592063492063492,12.249144421629,6,0.487159858027699,24
0.024390243902439,0.62979480523649,0.87962962962963,13.4318959616701,2,0.0758552681483729,25
0.0172413793103448,0.691667277990346,0.888425925925926,17.4318959616701,4,1.43120016356573,25
0.683333333333333,0.244747894610029,0.935846560846562,18.1656399726215,8,0.393030263330276,26
0.808510638297872,0.620217239001989,0.668386243386243,14.1656399726215,5,0.0711389343387636,26
0.735849056603774,0.482807644165262,0.592063492063492,15.1676933607118,6,0.219587176108915,26
0.568965517241379,NA,0.888425925925926,17.1663244353183,7,0.407331975560081,26
0.25,0.0143922163679392,1.16388888888889,12.1670088980151,5,0.23270696375589,26
0.724137931034483,0.308933926166343,0.888425925925926,6.24777549623546,1,0.193292741857543,27
0.723404255319149,0.165823920632408,0.668386243386243,4.99931553730322,1,0.232126276694522,28
0.706896551724138,NA,0.888425925925926,8,3,0,28
0.560975609756098,NA,0.87962962962963,4,0,0.645994832041344,28
0.433333333333333,0.0801925660825185,0.935846560846562,7.12388774811773,1,0,29
0.245283018867925,0.463979583607961,0.592063492063492,6.58179329226557,2,0.301416658293982,30
0.212765957446809,0.319513392559429,0.668386243386243,8,2,0.279739841946989,31
0.293103448275862,NA,0.888425925925926,11.0006844626968,4,0.466309162975052,31
0.106382978723404,0.552476365549515,0.668386243386243,4.99931553730322,0,0,32
0.258620689655172,NA,0.888425925925926,8,2,0,32
0.170731707317073,NA,0.87962962962963,4,0,0,32
0.383333333333333,0.475311483614337,0.935846560846562,9.24572210814511,2,0,33
0.226415094339623,0.0196720008981072,0.592063492063492,6.24777549623546,1,0,33
0.361702127659574,0.357552794297966,0.668386243386243,5.24572210814511,1,0.288766965059197,33
0.365853658536585,0.0221239005351776,0.87962962962963,7.08555783709788,1,0.287273771904625,34
0.666666666666667,0.203454391462906,0.935846560846562,8,2,0.327385824193812,35
0.866666666666667,0.070745577661764,0.935846560846562,5.1772758384668,1,0.262881177707676,36
0.974683544303797,NA,NA,7.17864476386037,2,0.779423226812159,36
0.2,0.78999703280835,0.935846560846562,6.18206707734428,1,0.130736043927311,37
0.275862068965517,NA,0.888425925925926,5.18275154004107,1,0,37
0.816666666666667,NA,0.935846560846562,7.75085557837098,2,0,38
0.916666666666667,0.175482018924672,0.935846560846562,6.23408624229979,2,0.187828700225394,39
0.183333333333333,0.137245549649632,0.935846560846562,12.2464065708419,4,0.247831474597274,40
0.113207547169811,0.122425631977328,0.592063492063492,9.24845995893224,2,0,40
0.241379310344828,NA,0.888425925925926,8.33127994524298,2,0,41
0.766666666666667,NA,0.935846560846562,6.57905544147844,1,0,42
0.0833333333333333,0.0505519953361262,0.935846560846562,6.24503764544832,1,0,43
0.362068965517241,NA,0.888425925925926,5.24572210814511,1,0,43
NA,NA,0.935846560846562,19.2470910335387,1,0,44
0.416666666666667,0.154909819608177,0.935846560846562,5.24572210814511,0,0,45
NA,NA,0.935846560846562,4.41341546885695,0,0.885739592559787,46
0.466666666666667,NA,0.935846560846562,4.13415468856947,0,0,47
0.1,0.0598540754924621,0.935846560846562,4.25735797399042,0,0,48
